xpm_cdc.sv,systemverilog,xil_defaultlib,../../../../../../../../../../../Xilinx/Vivado/2019.1/data/ip/xpm/xpm_cdc/hdl/xpm_cdc.sv,incdir="../../../../ADC_to_AXI.srcs/sources_1/bd/design_1/ipshared/c923"incdir="../../../../ADC_to_AXI.srcs/sources_1/bd/design_1/ipshared/c923"incdir="../../../../ADC_to_AXI.srcs/sources_1/bd/design_1/ip/design_1_ADC_GET_DATA_0_0/src/clk_wiz_1"
xpm_VCOMP.vhd,vhdl,xpm,../../../../../../../../../../../Xilinx/Vivado/2019.1/data/ip/xpm/xpm_VCOMP.vhd,incdir="../../../../ADC_to_AXI.srcs/sources_1/bd/design_1/ipshared/c923"incdir="../../../../ADC_to_AXI.srcs/sources_1/bd/design_1/ipshared/c923"incdir="../../../../ADC_to_AXI.srcs/sources_1/bd/design_1/ip/design_1_ADC_GET_DATA_0_0/src/clk_wiz_1"
ADC_to_AXI_v1_0_M00_AXIS.v,verilog,xil_defaultlib,../../../bd/design_1/ipshared/e0f2/hdl/ADC_to_AXI_v1_0_M00_AXIS.v,incdir="../../../../ADC_to_AXI.srcs/sources_1/bd/design_1/ipshared/c923"incdir="../../../../ADC_to_AXI.srcs/sources_1/bd/design_1/ipshared/c923"incdir="../../../../ADC_to_AXI.srcs/sources_1/bd/design_1/ip/design_1_ADC_GET_DATA_0_0/src/clk_wiz_1"
ADC_to_AXI_v1_0.v,verilog,xil_defaultlib,../../../bd/design_1/ipshared/e0f2/hdl/ADC_to_AXI_v1_0.v,incdir="../../../../ADC_to_AXI.srcs/sources_1/bd/design_1/ipshared/c923"incdir="../../../../ADC_to_AXI.srcs/sources_1/bd/design_1/ipshared/c923"incdir="../../../../ADC_to_AXI.srcs/sources_1/bd/design_1/ip/design_1_ADC_GET_DATA_0_0/src/clk_wiz_1"
design_1_ADC_to_AXI_0_0.v,verilog,xil_defaultlib,../../../bd/design_1/ip/design_1_ADC_to_AXI_0_0/sim/design_1_ADC_to_AXI_0_0.v,incdir="../../../../ADC_to_AXI.srcs/sources_1/bd/design_1/ipshared/c923"incdir="../../../../ADC_to_AXI.srcs/sources_1/bd/design_1/ipshared/c923"incdir="../../../../ADC_to_AXI.srcs/sources_1/bd/design_1/ip/design_1_ADC_GET_DATA_0_0/src/clk_wiz_1"
counter_v1_0.v,verilog,xil_defaultlib,../../../bd/design_1/ipshared/82b5/hdl/counter_v1_0.v,incdir="../../../../ADC_to_AXI.srcs/sources_1/bd/design_1/ipshared/c923"incdir="../../../../ADC_to_AXI.srcs/sources_1/bd/design_1/ipshared/c923"incdir="../../../../ADC_to_AXI.srcs/sources_1/bd/design_1/ip/design_1_ADC_GET_DATA_0_0/src/clk_wiz_1"
design_1_counter_0_0.v,verilog,xil_defaultlib,../../../bd/design_1/ip/design_1_counter_0_0/sim/design_1_counter_0_0.v,incdir="../../../../ADC_to_AXI.srcs/sources_1/bd/design_1/ipshared/c923"incdir="../../../../ADC_to_AXI.srcs/sources_1/bd/design_1/ipshared/c923"incdir="../../../../ADC_to_AXI.srcs/sources_1/bd/design_1/ip/design_1_ADC_GET_DATA_0_0/src/clk_wiz_1"
design_1_clk_wiz_0_0_clk_wiz.v,verilog,xil_defaultlib,../../../bd/design_1/ip/design_1_clk_wiz_0_0/design_1_clk_wiz_0_0_clk_wiz.v,incdir="../../../../ADC_to_AXI.srcs/sources_1/bd/design_1/ipshared/c923"incdir="../../../../ADC_to_AXI.srcs/sources_1/bd/design_1/ipshared/c923"incdir="../../../../ADC_to_AXI.srcs/sources_1/bd/design_1/ip/design_1_ADC_GET_DATA_0_0/src/clk_wiz_1"
design_1_clk_wiz_0_0.v,verilog,xil_defaultlib,../../../bd/design_1/ip/design_1_clk_wiz_0_0/design_1_clk_wiz_0_0.v,incdir="../../../../ADC_to_AXI.srcs/sources_1/bd/design_1/ipshared/c923"incdir="../../../../ADC_to_AXI.srcs/sources_1/bd/design_1/ipshared/c923"incdir="../../../../ADC_to_AXI.srcs/sources_1/bd/design_1/ip/design_1_ADC_GET_DATA_0_0/src/clk_wiz_1"
design_1_clk_wiz_1_0_clk_wiz.v,verilog,xil_defaultlib,../../../bd/design_1/ip/design_1_clk_wiz_1_0/design_1_clk_wiz_1_0_clk_wiz.v,incdir="../../../../ADC_to_AXI.srcs/sources_1/bd/design_1/ipshared/c923"incdir="../../../../ADC_to_AXI.srcs/sources_1/bd/design_1/ipshared/c923"incdir="../../../../ADC_to_AXI.srcs/sources_1/bd/design_1/ip/design_1_ADC_GET_DATA_0_0/src/clk_wiz_1"
design_1_clk_wiz_1_0.v,verilog,xil_defaultlib,../../../bd/design_1/ip/design_1_clk_wiz_1_0/design_1_clk_wiz_1_0.v,incdir="../../../../ADC_to_AXI.srcs/sources_1/bd/design_1/ipshared/c923"incdir="../../../../ADC_to_AXI.srcs/sources_1/bd/design_1/ipshared/c923"incdir="../../../../ADC_to_AXI.srcs/sources_1/bd/design_1/ip/design_1_ADC_GET_DATA_0_0/src/clk_wiz_1"
xlconstant_v1_1_vl_rfs.v,verilog,xlconstant_v1_1_6,../../../../ADC_to_AXI.srcs/sources_1/bd/design_1/ipshared/66e7/hdl/xlconstant_v1_1_vl_rfs.v,incdir="../../../../ADC_to_AXI.srcs/sources_1/bd/design_1/ipshared/c923"incdir="../../../../ADC_to_AXI.srcs/sources_1/bd/design_1/ipshared/c923"incdir="../../../../ADC_to_AXI.srcs/sources_1/bd/design_1/ip/design_1_ADC_GET_DATA_0_0/src/clk_wiz_1"
design_1_xlconstant_0_0.v,verilog,xil_defaultlib,../../../bd/design_1/ip/design_1_xlconstant_0_0/sim/design_1_xlconstant_0_0.v,incdir="../../../../ADC_to_AXI.srcs/sources_1/bd/design_1/ipshared/c923"incdir="../../../../ADC_to_AXI.srcs/sources_1/bd/design_1/ipshared/c923"incdir="../../../../ADC_to_AXI.srcs/sources_1/bd/design_1/ip/design_1_ADC_GET_DATA_0_0/src/clk_wiz_1"
clk_wiz_1_clk_wiz.v,verilog,xil_defaultlib,../../../bd/design_1/ip/design_1_ADC_GET_DATA_0_0/src/clk_wiz_1/clk_wiz_1_clk_wiz.v,incdir="../../../../ADC_to_AXI.srcs/sources_1/bd/design_1/ipshared/c923"incdir="../../../../ADC_to_AXI.srcs/sources_1/bd/design_1/ipshared/c923"incdir="../../../../ADC_to_AXI.srcs/sources_1/bd/design_1/ip/design_1_ADC_GET_DATA_0_0/src/clk_wiz_1"
clk_wiz_1.v,verilog,xil_defaultlib,../../../bd/design_1/ip/design_1_ADC_GET_DATA_0_0/src/clk_wiz_1/clk_wiz_1.v,incdir="../../../../ADC_to_AXI.srcs/sources_1/bd/design_1/ipshared/c923"incdir="../../../../ADC_to_AXI.srcs/sources_1/bd/design_1/ipshared/c923"incdir="../../../../ADC_to_AXI.srcs/sources_1/bd/design_1/ip/design_1_ADC_GET_DATA_0_0/src/clk_wiz_1"
adc_get_data.sv,systemverilog,xil_defaultlib,../../../bd/design_1/ipshared/d258/hdl/adc_get_data.sv,incdir="../../../../ADC_to_AXI.srcs/sources_1/bd/design_1/ipshared/c923"incdir="../../../../ADC_to_AXI.srcs/sources_1/bd/design_1/ipshared/c923"incdir="../../../../ADC_to_AXI.srcs/sources_1/bd/design_1/ip/design_1_ADC_GET_DATA_0_0/src/clk_wiz_1"
design_1_ADC_GET_DATA_0_0.sv,systemverilog,xil_defaultlib,../../../bd/design_1/ip/design_1_ADC_GET_DATA_0_0/sim/design_1_ADC_GET_DATA_0_0.sv,incdir="../../../../ADC_to_AXI.srcs/sources_1/bd/design_1/ipshared/c923"incdir="../../../../ADC_to_AXI.srcs/sources_1/bd/design_1/ipshared/c923"incdir="../../../../ADC_to_AXI.srcs/sources_1/bd/design_1/ip/design_1_ADC_GET_DATA_0_0/src/clk_wiz_1"
design_1.v,verilog,xil_defaultlib,../../../bd/design_1/sim/design_1.v,incdir="../../../../ADC_to_AXI.srcs/sources_1/bd/design_1/ipshared/c923"incdir="../../../../ADC_to_AXI.srcs/sources_1/bd/design_1/ipshared/c923"incdir="../../../../ADC_to_AXI.srcs/sources_1/bd/design_1/ip/design_1_ADC_GET_DATA_0_0/src/clk_wiz_1"
glbl.v,Verilog,xil_defaultlib,glbl.v
