# compile verilog/system verilog design source files
verilog xil_defaultlib  --include "../../../../ADC_to_AXI.srcs/sources_1/bd/design_1/ipshared/c923" --include "../../../../ADC_to_AXI.srcs/sources_1/bd/design_1/ip/design_1_ADC_GET_DATA_0_0/src/clk_wiz_1" \
"../../../../ADC_to_AXI.ip_user_files/bd/design_1/ipshared/e0f2/hdl/ADC_to_AXI_v1_0_M00_AXIS.v" \
"../../../../ADC_to_AXI.ip_user_files/bd/design_1/ipshared/e0f2/hdl/ADC_to_AXI_v1_0.v" \
"../../../../ADC_to_AXI.ip_user_files/bd/design_1/ip/design_1_ADC_to_AXI_0_0/sim/design_1_ADC_to_AXI_0_0.v" \
"../../../../ADC_to_AXI.ip_user_files/bd/design_1/ipshared/82b5/hdl/counter_v1_0.v" \
"../../../../ADC_to_AXI.ip_user_files/bd/design_1/ip/design_1_counter_0_0/sim/design_1_counter_0_0.v" \
"../../../../ADC_to_AXI.ip_user_files/bd/design_1/ip/design_1_clk_wiz_0_0/design_1_clk_wiz_0_0_clk_wiz.v" \
"../../../../ADC_to_AXI.ip_user_files/bd/design_1/ip/design_1_clk_wiz_0_0/design_1_clk_wiz_0_0.v" \
"../../../../ADC_to_AXI.ip_user_files/bd/design_1/ip/design_1_clk_wiz_1_0/design_1_clk_wiz_1_0_clk_wiz.v" \
"../../../../ADC_to_AXI.ip_user_files/bd/design_1/ip/design_1_clk_wiz_1_0/design_1_clk_wiz_1_0.v" \
"../../../../ADC_to_AXI.ip_user_files/bd/design_1/ip/design_1_xlconstant_0_0/sim/design_1_xlconstant_0_0.v" \
"../../../../ADC_to_AXI.ip_user_files/bd/design_1/ip/design_1_ADC_GET_DATA_0_0/src/clk_wiz_1/clk_wiz_1_clk_wiz.v" \
"../../../../ADC_to_AXI.ip_user_files/bd/design_1/ip/design_1_ADC_GET_DATA_0_0/src/clk_wiz_1/clk_wiz_1.v" \

sv xil_defaultlib  --include "../../../../ADC_to_AXI.srcs/sources_1/bd/design_1/ipshared/c923" --include "../../../../ADC_to_AXI.srcs/sources_1/bd/design_1/ip/design_1_ADC_GET_DATA_0_0/src/clk_wiz_1" \
"../../../../ADC_to_AXI.ip_user_files/bd/design_1/ipshared/d258/hdl/adc_get_data.sv" \
"../../../../ADC_to_AXI.ip_user_files/bd/design_1/ip/design_1_ADC_GET_DATA_0_0/sim/design_1_ADC_GET_DATA_0_0.sv" \

verilog xil_defaultlib  --include "../../../../ADC_to_AXI.srcs/sources_1/bd/design_1/ipshared/c923" --include "../../../../ADC_to_AXI.srcs/sources_1/bd/design_1/ip/design_1_ADC_GET_DATA_0_0/src/clk_wiz_1" \
"../../../../ADC_to_AXI.ip_user_files/bd/design_1/sim/design_1.v" \
"../../../../ADC_to_AXI.srcs/sources_1/bd/design_1/hdl/design_1_wrapper.v" \
"../../../../ADC_to_AXI.srcs/sim_1/new/tb_ADC_to_AXI.v" \

# compile glbl module
verilog xil_defaultlib "glbl.v"

# Do not sort compile order
nosort
